// LOAD JSON file
load sample-incorp-form-api-data.json to test
// test = load $1
json_data = JSON.parse(test)
https://mycoid2016.ssm.com.my/Zukami/Login.aspx?AppID=2e9d5b97-691b-4164-859d-ceb25cf5bf8e
type uName as [clear]vincent
type pWord as [clear]vincent
click .login__submit
wait 5 second
element_count = count('//div[@id="captcha-container"]/div')
echo `element_count`
recaptcha_input = ""
for n from 1 to element_count
{
read //div[@id="captcha-container"]/div[`n`] to child_text
recaptcha_input = recaptcha_input+child_text
}
echo  `recaptcha_input`
type #captcha-input as `recaptcha_input`
snap page to user1/filename.png
click #captcha-proceed
// click //a[@id="myapplication_link"]
// click .submenuitem_header:nth-child(1) span
// click //a[text()="Incorporate" or contains("https://mycoid2016.ssm.com.my/Zukami/FillForm.aspx?a=2e9d5b97-691b-4164-859d-ceb25cf5bf8e&FT=1&ListID=4dbf8528-3667-42e7-933f-e944ed98b5cc&action=incorpfromacn&lodgingrefno=ACN130320245954004&erefno=2024E014363&brefno=2024B013262",@href)]
file:///C:/Users/VincentLoong/Desktop/tagui%20project%20html/vincent-new-draft.html
// click ctl00_ContentPlaceHolder1_FormEngine1_tb0677c15d-3b8f-4198-b6bd-3a0d6a982976_dgd0677c15d-3b8f-4198-b6bd-3a0d6a982976_hlAddEntry
// click .select2-selection__placeholder
// click ctl00_ContentPlaceHolder1_FormEngine1_btnSave
// Application Details -------------------------------------------------------------------------
// BUSINESS DESCRIPTION
type ctl00_ContentPlaceHolder1_FormEngine1_mf_773f3780-7707-464a-a1f9-989d74f82ec6 as `json_data.msic.activity_description`
// REGISTERED ADDRESS
type ctl00_ContentPlaceHolder1_FormEngine1_mf_16e89a05-304d-4de7-832b-7ebab4229f9d as `json_data.residential_address.address1`
type ctl00_ContentPlaceHolder1_FormEngine1_mf_3bd53e25-cc8b-4b18-bd90-9e3cfd42cc61 as `json_data.residential_address.address2`
type ctl00_ContentPlaceHolder1_FormEngine1_mf_1eca5892-c8dc-4b9c-aa42-6ea35c651fd2 as `json_data.residential_address.address3`
// Country AUTO MALAYSIA. Not yet confirm will have other country, json need to return country with full name Eg. MALAYSIA. 'MY' will not work as it will choose MYANMAR
countryValue = json_data.residential_address.state
// select //select[@name='ctl00$ContentPlaceHolder1$FormEngine1$mf_3c27c86f-5c54-444f-a96a-056a05cf05f4$ddlGroup'] as `countryValue`
// select //select[@name='ctl00$ContentPlaceHolder1$FormEngine1$mf_a47e086f-b648-45aa-b296-8ef74209eb59$ddlGroup'] as `json_data.residential_address.city`
select //select[@name='ctl00$ContentPlaceHolder1$FormEngine1$mf_3c27c86f-5c54-444f-a96a-056a05cf05f4$ddlGroup'] as ADEN
select //select[@name='ctl00$ContentPlaceHolder1$FormEngine1$mf_a47e086f-b648-45aa-b296-8ef74209eb59$ddlGroup'] as JOHOR
select //select[@id='ctl00_ContentPlaceHolder1_FormEngine1_mf_eb9ac5e5-69ec-4368-9768-d465ec07b394_ddlGroup'] as `json_data.residential_address.postcode`
type ctl00_ContentPlaceHolder1_FormEngine1_mf_dd2f6f65-1175-479c-b091-27721b1c5b7b as `json_data.contact_email`
type ctl00_ContentPlaceHolder1_FormEngine1_mf_90e413c2-f9a9-4bef-8083-b596f5c3cf20 as `json_data.contact_no`
type ctl00_ContentPlaceHolder1_FormEngine1_mf_ab0ce6c4-4d09-4cfc-b6b3-9239b270b10d as `json_data.business_address.address1`
type ctl00_ContentPlaceHolder1_FormEngine1_mf_926a982c-229e-47d7-9651-38d17b2f9c55 as `json_data.business_address.address2`
type ctl00_ContentPlaceHolder1_FormEngine1_mf_d4b1c781-a843-4bbd-8664-e25a15d961be as `json_data.business_address.address3`
// click ctl00_ContentPlaceHolder1_FormEngine1_mf_29f02aab-0f7b-46d2-92bc-d5124987cd53_ddlGroup
// select //select[@id='ctl00_ContentPlaceHolder1_FormEngine1_mf_29f02aab-0f7b-46d2-92bc-d5124987cd53_ddlGroup'] as 972c1e09-5b82-4d8f-8f48-a9946630a20a
// type .select2-search__field as malay // business_address.country
// click select2-ctl00_ContentPlaceHolder1_FormEngine1_mf_41207d2d-0d06-4596-8442-6a9d0f69241d_ddlGroup-container .select2-selection__placeholder
// type .select2-search__field as `json_data.business_address.state`
// select ctl00_ContentPlaceHolder1_FormEngine1_mf_29f02aab-0f7b-46d2-92bc-d5124987cd53_ddlGroup as `json_data.business_address.city`
select ctl00_ContentPlaceHolder1_FormEngine1_mf_29f02aab-0f7b-46d2-92bc-d5124987cd53_ddlGroup as AFGHANISTAN
// click select2-ctl00_ContentPlaceHolder1_FormEngine1_mf_eb4f504d-36b1-420b-8b6a-3dcff7f96121_ddlGroup-container
click //a[text()="Directors"]
file:///C:/Users/VincentLoong/Desktop/tagui%20project%20html/vincent-direct-form.html
click .datagridcol_normal:nth-child(2)
country = json_data.business_address.country
if country equals to 'MY'
{
country = 'Malaysia'
}
click select2-ctl00_ContentPlaceHolder1_FormEngine1_mf_8a7bbf89-cba5-4789-88aa-7fc66e4ea0be_ddlGroup-container .select2-selection__placeholder
type .select2-search__field as mlalay
click select2-ctl00_ContentPlaceHolder1_FormEngine1_mf_c06cf816-00f1-4a6e-9ac9-38c06a031240_ddlGroup-container .select2-selection__placeholder
click ctl00_ContentPlaceHolder1_FormEngine1_mf_86316498-8040-41d2-805b-9b5dbc797851
type ctl00_ContentPlaceHolder1_FormEngine1_mf_86316498-8040-41d2-805b-9b5dbc797851 as `json_data.contact_email`
type ctl00_ContentPlaceHolder1_FormEngine1_mf_a615f8cf-f38e-4b94-82f7-16fac7345931 as `json_data.contact_email`
click select2-ctl00_ContentPlaceHolder1_FormEngine1_mf_f11c1039-55d2-4346-a42f-995257e0d579_ddlGroup-container
type .select2-search__field as malay
click select2-ctl00_ContentPlaceHolder1_FormEngine1_mf_788c22e1-dd3b-4de6-aadb-5f92f387a664_ddlGroup-container .select2-selection__placeholder
type .select2-search__field as `json_data.contact_email`
click select2-ctl00_ContentPlaceHolder1_FormEngine1_mf_0641aa3a-e5b2-48bb-8a75-f8037a784c4e_ddlGroup-container .select2-selection__placeholder
click select2-ctl00_ContentPlaceHolder1_FormEngine1_mf_a39c630a-a6ef-4a2d-aa47-a8909686fa95_ddlGroup-container
click ctl00_ContentPlaceHolder1_FormEngine1_cl1d7945cd-129c-4b36-bdaa-da16fb3e7b9f_1
click ctl00_ContentPlaceHolder1_FormEngine1_cl258e89d8-73e5-4f8f-b933-0206057d69e8_1
click ctl00_ContentPlaceHolder1_FormEngine1_btnSave
click .datagridcol_normal:nth-child(4)
click ctl00_ContentPlaceHolder1_FormEngine1_btnSave
click //a[text()="Members/Shareholders" or contains("https://mycoid2016.ssm.com.my/Zukami/fillform.aspx?ListID=4dbf8528-3667-42e7-933f-e944ed98b5cc&ID=&a=2e9d5b97-691b-4164-859d-ceb25cf5bf8e&OPID=06f915e3-2f6b-4217-b529-72a2f57bea86&action=incorpfromacn&lodgingrefno=ACN130320245954004&erefno=2024E014363&brefno=2024B013262#",@href)]
click .datagridcol_normal:nth-child(2)
type ctl00_ContentPlaceHolder1_FormEngine1_mf_a4725b2a-3782-4785-9776-f8f7f3eca44f as `json_data.contact_email` //Price per share -
type ctl00_ContentPlaceHolder1_FormEngine1_mf_35e5bd3e-51ed-4590-902c-396407d8afd9 as `json_data.contact_email` //Number of share -
click tr50 .fieldcaption_cell
click select2-ctl00_ContentPlaceHolder1_FormEngine1_mf_ffb98b74-d407-4441-9ead-7b551bd72827_ddlGroup-container
click ctl00_ContentPlaceHolder1_FormEngine1_cl91fe61d1-084b-49dd-8823-2fb043c32d2b_1
click //a[text()="Information To Agency"]
click ctl00_ContentPlaceHolder1_FormEngine1_clbd45c870-35c6-4412-9740-0a069f061ff3_1
click ctl00_ContentPlaceHolder1_FormEngine1_Button4
